../Core/Src/main.cpp:123:6:void SystemClock_Config()	88	static,ignoring_inline_asm
../Core/Src/main.cpp:76:5:int main()	128	static,ignoring_inline_asm
../Core/Src/main.cpp:385:6:void Error_Handler()	0	static,ignoring_inline_asm
